%YAML 1.1
%TAG !u! tag:unity3d.com,2011:
--- !u!1 &119230
GameObject:
  m_ObjectHideFlags: 0
  m_PrefabParentObject: {fileID: 0}
  m_PrefabInternal: {fileID: 100100000}
  serializedVersion: 4
  m_Component:
  - 4: {fileID: 419230}
  - 114: {fileID: 11419230}
  m_Layer: 0
  m_Name: gamePlayMenu
  m_TagString: Untagged
  m_Icon: {fileID: 0}
  m_NavMeshLayer: 0
  m_StaticEditorFlags: 0
  m_IsActive: 1
--- !u!4 &419230
Transform:
  m_ObjectHideFlags: 1
  m_PrefabParentObject: {fileID: 0}
  m_PrefabInternal: {fileID: 100100000}
  m_GameObject: {fileID: 119230}
  m_LocalRotation: {x: 0, y: 0, z: 0, w: 1}
  m_LocalPosition: {x: -1.04813802, y: -25.5972519, z: 0}
  m_LocalScale: {x: 1, y: 1, z: 1}
  m_Children: []
  m_Father: {fileID: 0}
  m_RootOrder: 0
--- !u!114 &11419230
MonoBehaviour:
  m_ObjectHideFlags: 1
  m_PrefabParentObject: {fileID: 0}
  m_PrefabInternal: {fileID: 100100000}
  m_GameObject: {fileID: 119230}
  m_Enabled: 1
  m_EditorHideFlags: 0
  m_Script: {fileID: 11500000, guid: bdc72a12fe503eb448595a0251ef8d14, type: 3}
  m_Name: 
  m_EditorClassIdentifier: 
  RunnerPrefab: {fileID: 188640, guid: 4a37881d63dd9da4486f3c1d07d9e0ff, type: 2}
  FairyPrefab: {fileID: 199804, guid: ebb4db2594cb1a14da71c334c6efef42, type: 2}
  HUDPrefab: {fileID: 107702, guid: 930bf7e7578ce314c8a5a9036bd30f32, type: 2}
  lives: 4
  death: 1
--- !u!1001 &100100000
Prefab:
  m_ObjectHideFlags: 1
  serializedVersion: 2
  m_Modification:
    m_TransformParent: {fileID: 0}
    m_Modifications: []
    m_RemovedComponents: []
  m_ParentPrefab: {fileID: 0}
  m_RootGameObject: {fileID: 119230}
  m_IsPrefabParent: 1
  m_IsExploded: 1
